…
Im assuming 1 case number per patient. Check if this is true

``` r
june5 %>%
        group_by(casenumber) %>%
        count() %>%
        filter(n > 1, !is.na(casenumber))
```

    ## # A tibble: 46 x 2
    ## # Groups:   casenumber [46]
    ##    casenumber     n
    ##    <chr>      <int>
    ##  1 PH10463        2
    ##  2 PH10519        2
    ##  3 PH10574        2
    ##  4 PH11142        2
    ##  5 PH11622        2
    ##  6 PH11954        2
    ##  7 PH11972        2
    ##  8 PH12116        2
    ##  9 PH12182        2
    ## 10 PH12184        2
    ## # ... with 36 more rows

``` r
june6 %>%
        group_by(casenumber) %>%
        count() %>%
        filter(n > 1, !is.na(casenumber))
```

    ## # A tibble: 46 x 2
    ## # Groups:   casenumber [46]
    ##    casenumber     n
    ##    <chr>      <int>
    ##  1 PH10463        2
    ##  2 PH10519        2
    ##  3 PH10574        2
    ##  4 PH11142        2
    ##  5 PH11622        2
    ##  6 PH11954        2
    ##  7 PH11972        2
    ##  8 PH12116        2
    ##  9 PH12182        2
    ## 10 PH12184        2
    ## # ... with 36 more rows
…
Im interested whether there are cases that changed province and
hospitals. This information is very important on whether to impose GCQ
or ECQ on certain locations

``` r
june7 %>%
        select(casenumber, currentregion) %>%
        left_join(june5 %>% select(casenumber, currentregion), by = 'casenumber') %>%
        distinct() %>%
        group_by(casenumber) %>%
        filter(currentregion.x != currentregion.y, !is.na(casenumber))
```

    ## # A tibble: 29 x 3
    ## # Groups:   casenumber [23]
    ##    casenumber currentregion.x         currentregion.y        
    ##    <chr>      <chr>                   <chr>                  
    ##  1 PH14183    CaLaBaRZon              National Capital Region
    ##  2 PH4546     Bicol                   National Capital Region
    ##  3 PH2663     Central Luzon           Repatriate             
    ##  4 PH2392     CaLaBaRZon              National Capital Region
    ##  5 PH3680     CaLaBaRZon              National Capital Region
    ##  6 PH5637     National Capital Region CaLaBaRZon             
    ##  7 PH13086    National Capital Region Zamboanga Peninsula    
    ##  8 PH4546     National Capital Region Bicol                  
    ##  9 PH8302     National Capital Region Ilocos                 
    ## 10 PH2108     Central Luzon           National Capital Region
    ## # ... with 19 more rows
…
``` r
june6_missing = june6_missing %>%
        rename_with(function(x) paste0('June6_', x))

june7_missing = june7_missing %>%
        rename_with(function(x) paste0('June7_', x))
```

``` r
june7_missing %>%
        inner_join(june6_missing, by = c('June7_casenumber' = 'June6_casenumber')) %>%
        filter(June7_missing_values != June6_missing_values)
```

    ## # A tibble: 458 x 3
    ##    June7_casenumber June7_missing_values June6_missing_values
    ##    <chr>                           <int>                <int>
    ##  1 PH10072                            17                   18
    ##  2 PH10077                            20                   21
    ##  3 PH10091                            17                   18
    ##  4 PH10094                            21                   18
    ##  5 PH10113                            19                   20
    ##  6 PH10201                            17                   21
    ##  7 PH10228                            10                   14
    ##  8 PH10271                            19                   20
    ##  9 PH10346                            12                   15
    ## 10 PH10377                            16                   17
    ## # ... with 448 more rows
…
I am comparing the dates of June 5 and June 7 data to check whether the
June7 data were new entries. Maybe just check the case number

New entries for June 7

``` r
june7 %>%
        anti_join(june5, by = c('casenumber' = 'casenumber')) %>%
        arrange(desc(parse_number(casenumber))) %>%
        select(casenumber, age, sex, nationality, healthstatus)
```

    ## # A tibble: 443 x 5
    ##    casenumber   age sex    nationality          healthstatus
    ##    <chr>      <dbl> <chr>  <chr>                <chr>       
    ##  1 PH20215       47 Male   Philippine, Filipino <NA>        
    ##  2 PH20072       14 Male   Philippine, Filipino <NA>        
    ##  3 PH20061       44 Female Philippine, Filipino <NA>        
    ##  4 PH20042       46 Female Philippine, Filipino <NA>        
    ##  5 PH19748       30 Male   Philippine, Filipino <NA>        
    ##  6 PH19746       59 Male   Philippine, Filipino Mild        
    ##  7 PH19745       10 Female Philippine, Filipino <NA>        
    ##  8 PH19744       14 Male   Philippine, Filipino <NA>        
    ##  9 PH19743        4 Female Philippine, Filipino <NA>        
    ## 10 PH19742       39 Male   Philippine, Filipino <NA>        
    ## # ... with 433 more rows
…
Almost same percentage of missing data

# Clean some data

Try to clean some data.

Nationality

``` r
all_entries %>%
        count(nationality)
```

    ## # A tibble: 44 x 2
    ##    nationality        n
    ##  * <chr>          <int>
    ##  1 0               2274
    ##  2 American           8
    ##  3 AMERICAN SAMOA     3
    ##  4 AUSTRALIA          1
    ##  5 Australian         6
    ##  6 BANGLADESH         1
    ##  7 British, UK        1
    ##  8 CAMBODIA           1
    ##  9 Canadian           5
    ## 10 CHINA              4
    ## # ... with 34 more rows
…
``` r
all_entries %>%
        select(onset_date) %>%
        mutate(onset_date = mdy(onset_date)) %>%
        arrange(onset_date)
```

    ## # A tibble: 22,709 x 1
    ##    onset_date
    ##    <date>    
    ##  1 1900-01-01
    ##  2 1900-01-01
    ##  3 1900-01-01
    ##  4 1900-01-01
    ##  5 1900-01-01
    ##  6 1900-01-01
    ##  7 1900-01-01
    ##  8 1900-01-01
    ##  9 1900-01-01
    ## 10 1900-01-01
    ## # ... with 22,699 more rows

Im not sure if this is default or not.

``` r
all_entries %>%
        select(casenumber, age,specimen_date, onset_date, result_date) %>%
        mutate(specimen_date = mdy(specimen_date)) %>%
        arrange(specimen_date)
```

    ## # A tibble: 22,709 x 5
    ##    casenumber   age specimen_date onset_date result_date
    ##    <chr>      <dbl> <date>        <chr>      <chr>      
    ##  1 <NA>         120 1900-01-01    <NA>       <NA>       
    ##  2 <NA>          63 1957-02-03    <NA>       5/30/2020  
    ##  3 <NA>          56 1964-03-11    <NA>       6/4/2020   
    ##  4 <NA>          49 1970-12-25    <NA>       4/21/2020  
    ##  5 PH16869       49 1971-04-07    <NA>       5/1/2020   
    ##  6 <NA>          37 1982-08-14    <NA>       5/19/2020  
    ##  7 PH13465       33 1986-08-08    <NA>       5/21/2020  
    ##  8 PH16745       45 2002-05-26    <NA>       5/28/2020  
    ##  9 PH17498       23 2010-05-14    <NA>       5/20/2020  
    ## 10 PH15919       38 2011-01-01    <NA>       5/17/2020  
    ## # ... with 22,699 more rows
…
``` r
all_entries = all_entries %>%
        mutate(specimen_date = ifelse(year(mdy(specimen_date)) < '2020', result_date, specimen_date))
```

``` r
all_entries %>%
        select(casenumber, result_date, datespecimenreceivedbylaboratory) %>%
        mutate(result_date = mdy(result_date)) %>%
        arrange((result_date))
```

    ## # A tibble: 22,709 x 3
    ##    casenumber result_date datespecimenreceivedbylaboratory
    ##    <chr>      <date>      <chr>                           
    ##  1 PH14137    1978-10-17  <NA>                            
    ##  2 PH7948     2002-04-28  4/27/2020                       
    ##  3 <NA>       2002-05-28  <NA>                            
    ##  4 PH14759    2018-05-21  <NA>                            
    ##  5 <NA>       2019-05-27  5/27/2020                       
    ##  6 <NA>       2019-05-27  <NA>                            
    ##  7 PH2389     2020-01-01  <NA>                            
    ##  8 PH7704     2020-01-01  <NA>                            
    ##  9 PH4870     2020-01-01  <NA>                            
    ## 10 PH7425     2020-01-01  <NA>                            
    ## # ... with 22,699 more rows
…
